<svg width="100" height="100" viewBox="0 0 100 100" fill="none" xmlns="http://www.w3.org/2000/svg">
<g clip-path="url(#clip0)">
<path d="M74.9999 25.5333V74.4833C74.8332 74.6667 74.6499 74.8333 74.4832 75H25.5165C25.3499 74.8333 25.1665 74.6667 24.9999 74.4833V25.5333C25.1649 25.3433 25.3431 25.165 25.5332 25H74.4665C74.6566 25.165 74.8348 25.3433 74.9999 25.5333Z" fill="#F44335"/>
<path d="M74.4666 25H69.4666C69.6566 25.165 69.8348 25.3433 69.9999 25.5333V74.4833C69.8332 74.6667 69.6499 74.8333 69.4832 75H74.4832C74.6499 74.8333 74.8332 74.6667 74.9999 74.4833V25.5333C74.8348 25.3433 74.6566 25.165 74.4666 25Z" fill="#C81E1E"/>
<path d="M24.5665 25.9667C24.7165 25.8167 24.8498 25.6667 24.9998 25.5333V74.4667C24.8498 74.3333 24.7165 74.1833 24.5665 74.0333C11.811 60.5498 11.811 39.4502 24.5665 25.9667Z" fill="#F44335"/>
<path d="M74.0332 24.5667C74.1859 24.7027 74.3305 24.8474 74.4665 25.0001H25.5332C25.6692 24.8474 25.8139 24.7027 25.9665 24.5667C39.4501 11.8112 60.5497 11.8112 74.0332 24.5667Z" fill="#F44335"/>
<path d="M74.0332 24.5667C67.5477 18.4102 58.9422 14.9847 49.9999 15.0001C49.1565 15.0001 48.3332 15.0634 47.4999 15.1217C55.5562 15.676 63.1688 19.0151 69.0332 24.5667C69.1859 24.7027 69.3306 24.8474 69.4665 25.0001H74.4665C74.3306 24.8474 74.1859 24.7027 74.0332 24.5667Z" fill="#C81E1E"/>
<path d="M25.5332 75H74.4665C74.3305 75.1527 74.1859 75.2973 74.0332 75.4333C60.5497 88.1888 39.4501 88.1888 25.9665 75.4333C25.8139 75.2973 25.6692 75.1527 25.5332 75Z" fill="#F44335"/>
<path d="M69.4665 75C69.3306 75.1527 69.1859 75.2973 69.0332 75.4333C63.1688 80.9849 55.5562 84.324 47.4999 84.8783C48.3332 84.9367 49.1565 85 49.9999 85C58.9422 85.0153 67.5477 81.5899 74.0332 75.4333C74.1859 75.2973 74.3306 75.1527 74.4665 75H69.4665Z" fill="#C81E1E"/>
<path d="M85 50C85.0153 58.9423 81.5899 67.5478 75.4333 74.0333C75.2833 74.1833 75.15 74.3333 75 74.4667V25.5333C75.15 25.6667 75.2833 25.8167 75.4333 25.9667C81.5899 32.4522 85.0153 41.0577 85 50Z" fill="#F44335"/>
<path d="M75.4333 25.9667C75.2833 25.8167 75.15 25.6667 75 25.5333V32.0333C81.6667 43.0834 81.6667 56.9165 75 67.9666V74.4667C75.15 74.3333 75.2833 74.1833 75.4333 74.0333C88.1888 60.5498 88.1888 39.4502 75.4333 25.9667Z" fill="#C81E1E"/>
<path d="M74.0332 24.5666C60.5497 11.8111 39.4501 11.8111 25.9665 24.5666C22.5999 12.8 30.6165 8.21663 38.3332 6.66663C46.6665 4.99996 48.3332 3.33329 49.9999 1.66663C51.6665 3.33329 53.3332 4.99996 61.6665 6.66663C69.3832 8.21663 77.3999 12.8 74.0332 24.5666Z" fill="#FF5722"/>
<path d="M61.6666 6.66663C53.3332 4.99996 51.6665 3.33329 49.9999 1.66663C49.2611 2.45495 48.4204 3.14102 47.4999 3.70663C50.369 5.19759 53.4673 6.19806 56.6666 6.66663C63.5732 8.05329 70.6949 11.8883 69.7049 21.1116C71.2383 22.147 72.6873 23.3023 74.0382 24.5666C77.3999 12.8 69.3832 8.21663 61.6666 6.66663Z" fill="#D84315"/>
<path d="M15 50C14.9846 58.9423 18.4101 67.5478 24.5666 74.0333C12.8 77.4 8.21663 69.3833 6.66663 61.6667C4.99996 53.3333 3.33329 51.6667 1.66663 50C3.33329 48.3333 4.99996 46.6667 6.66663 38.3333C8.21663 30.6167 12.8 22.6 24.5666 25.9667C18.4101 32.4522 14.9846 41.0577 15 50Z" fill="#FF5722"/>
<path d="M61.6665 93.3334C53.3332 95 51.6665 96.6667 49.9999 98.3334C48.3332 96.6667 46.6665 95 38.3332 93.3334C30.6165 91.7834 22.5999 87.2 25.9665 75.4333C39.4501 88.1888 60.5497 88.1888 74.0332 75.4333C77.3999 87.2 69.3832 91.7834 61.6665 93.3334Z" fill="#FF5722"/>
<path d="M74.0332 75.4333C72.6823 76.6976 71.2333 77.8529 69.6999 78.8884C70.6949 88.1117 63.5732 91.9467 56.6665 93.3334C53.4673 93.8019 50.369 94.8024 47.4999 96.2934C48.4204 96.859 49.2611 97.545 49.9999 98.3334C51.6665 96.6667 53.3332 95 61.6665 93.3334C69.3832 91.7834 77.3999 87.2 74.0332 75.4333Z" fill="#D84315"/>
<path d="M98.3332 50C96.6666 51.6667 94.9999 53.3333 93.3332 61.6667C91.7832 69.3833 87.1999 77.4 75.4332 74.0333C88.1887 60.5498 88.1887 39.4502 75.4332 25.9667C87.1999 22.6 91.7832 30.6167 93.3332 38.3333C94.9999 46.6667 96.6666 48.3333 98.3332 50Z" fill="#FF5722"/>
<path d="M93.3332 38.3333C91.9032 31.2133 87.8766 23.8616 78.0249 25.4066C84.3149 26.6233 87.1666 32.5616 88.3332 38.3333C89.9999 46.6666 91.6666 48.3333 93.3332 50C91.6666 51.6666 89.9999 53.3333 88.3332 61.6666C87.1666 67.4383 84.3149 73.375 78.0249 74.5933C87.8766 76.1383 91.9032 68.7866 93.3332 61.6666C94.9999 53.3333 96.6666 51.6666 98.3332 50C96.6666 48.3333 94.9999 46.6666 93.3332 38.3333Z" fill="#D84315"/>
<path d="M49.9999 75L34.9999 51.6666H64.9999L49.9999 75Z" fill="#FF9801"/>
<path d="M94.9666 38C93.7582 31.9767 91.1532 27.5967 87.4366 25.3333C83.9326 23.3837 79.7859 22.945 75.9516 24.1183L75.8766 24.0433C77.0493 20.2097 76.6113 16.0639 74.6632 12.56C72.3999 8.84334 68.0199 6.23834 61.9966 5.02834C54.1632 3.46001 52.7132 2.01334 51.1816 0.483339C50.5307 -0.167298 49.4757 -0.167298 48.8249 0.483339C47.2932 2.01334 45.8482 3.46001 38.0082 5.02834C31.9832 6.23834 27.6032 8.84334 25.3416 12.56C23.3935 16.0639 22.9555 20.2097 24.1282 24.0433L24.0532 24.1183C20.2189 22.9452 16.0722 23.3839 12.5682 25.3333C8.85156 27.5967 6.24656 31.9767 5.03823 38C3.46989 45.8333 2.02323 47.285 0.493226 48.815C-0.15741 49.4658 -0.15741 50.5208 0.493226 51.1717C2.02323 52.7017 3.46989 54.1483 5.03823 61.9883C6.24656 68.0117 8.85156 72.3917 12.5682 74.655C14.6358 75.8933 17.0086 76.5283 19.4182 76.4883C20.9835 76.4713 22.5412 76.2676 24.0582 75.8817L24.1282 75.95C22.9555 79.7836 23.3935 83.9295 25.3416 87.4333C27.6049 91.15 31.9849 93.755 38.0082 94.965C45.8416 96.5333 47.2916 97.98 48.8232 99.51C49.4741 100.161 50.5291 100.161 51.1799 99.51C52.7116 97.98 54.1566 96.5333 61.9966 94.965C68.0216 93.755 72.4016 91.15 74.6632 87.4333C76.6113 83.9295 77.0493 79.7836 75.8766 75.95L75.9466 75.8817C77.4636 76.2676 79.0213 76.4713 80.5866 76.4883C82.9962 76.5283 85.369 75.8933 87.4366 74.655C91.1532 72.3917 93.7582 68.0117 94.9666 61.9883C96.5349 54.155 97.9816 52.7033 99.5116 51.1733C100.162 50.5225 100.162 49.4675 99.5116 48.8167C97.9816 47.2917 96.5349 45.845 94.9666 38ZM66.4016 52.5683C66.7314 52.0555 66.7549 51.4035 66.4628 50.8683C66.1707 50.333 65.6097 50 64.9999 50H34.9999C34.3901 50 33.8291 50.333 33.537 50.8683C33.2449 51.4035 33.2683 52.0555 33.5982 52.5683L46.9482 73.3333H26.6666V26.6667H73.3332V73.3333H53.0516L66.4016 52.5683ZM49.9999 71.9183L38.0532 53.3333H61.9466L49.9999 71.9183ZM30.0849 23.3333C41.8744 14.4426 58.1288 14.4426 69.9182 23.3333H30.0849ZM23.3332 69.915C14.4425 58.1255 14.4425 41.8712 23.3332 30.0817V69.915ZM69.9149 76.6667C58.1254 85.5574 41.871 85.5574 30.0816 76.6667H69.9149ZM76.6666 30.085C85.5573 41.8745 85.5573 58.1289 76.6666 69.9183V30.085ZM28.1832 14.2983C30.4149 10.6317 35.1132 9.01334 38.6599 8.29834C45.6832 6.89501 48.3066 5.42001 49.9932 3.96501C51.6866 5.42334 54.3082 6.89834 61.3266 8.29834C64.8749 9.01167 69.5732 10.6317 71.8049 14.2983C73.0287 16.4742 73.4459 19.0119 72.9832 21.465C59.5726 10.6162 40.4039 10.6162 26.9932 21.465C26.5341 19.0105 26.9555 16.4727 28.1832 14.2983ZM14.2966 71.815C10.6299 69.5833 9.01323 64.8867 8.29656 61.34C6.89323 54.315 5.41823 51.6933 3.96323 50.0067C5.42156 48.3133 6.89656 45.6917 8.29656 38.6733C9.00989 35.125 10.6299 30.4283 14.2966 28.1967C16.4725 26.9733 19.0099 26.5555 21.4632 27.0167C10.6157 40.4278 10.6157 59.5956 21.4632 73.0067C19.0085 73.4658 16.4706 73.0438 14.2966 71.815ZM71.8166 85.7017C69.5849 89.3683 64.8866 90.9867 61.3399 91.7017C54.3166 93.105 51.6932 94.58 50.0066 96.035C48.3132 94.5767 45.6916 93.1017 38.6732 91.7017C35.1249 90.9883 30.4266 89.3683 28.1949 85.7017C26.9711 83.5258 26.5539 80.9881 27.0166 78.535C40.4272 89.3838 59.5959 89.3838 73.0066 78.535C73.4657 80.9895 73.0443 83.5273 71.8166 85.7017ZM91.6999 61.3333C90.9866 64.8817 89.3666 69.5783 85.6999 71.81C83.5244 73.0348 80.9865 73.4526 78.5332 72.99C89.3807 59.5789 89.3807 40.4111 78.5332 27C80.9866 26.5388 83.5239 26.9566 85.6999 28.18C89.3666 30.4117 90.9832 35.1083 91.6999 38.655C93.1032 45.68 94.5782 48.3017 96.0332 49.9883C94.5782 51.6933 93.1032 54.315 91.6999 61.3333Z" fill="black"/>
</g>
<defs>
<clipPath id="clip0">
<rect width="100" height="100" fill="white"/>
</clipPath>
</defs>
</svg>
