<svg width="100" height="100" viewBox="0 0 100 100" fill="none" xmlns="http://www.w3.org/2000/svg">
<path d="M59.7 13.8C59.1098 14.4685 58.5799 15.188 58.1167 15.95C52.1377 14.5316 45.8916 14.704 40 16.45C40.0129 15.5589 40.1134 14.6713 40.3 13.8C40.5888 12.4409 41.1378 11.1505 41.9167 9.99996C44.85 5.74996 50 4.99996 50 1.66663C50 4.99996 55.15 5.74996 58.0833 9.99996C58.8622 11.1505 59.4112 12.4409 59.7 13.8Z" fill="#FFDC00"/>
<path d="M58.0833 9.99996C55.15 5.74996 50 4.99996 50 1.66663C50 3.17996 48.9333 4.16663 47.5 5.17996C49.6435 6.42711 51.5367 8.06149 53.0833 9.99996C53.8622 11.1505 54.4112 12.4409 54.7 13.8C54.3132 14.2447 53.9526 14.7116 53.62 15.1983C55.1347 15.3514 56.6378 15.6025 58.12 15.95C58.5833 15.188 59.1131 14.4685 59.7033 13.8C59.4135 12.4407 58.8634 11.1503 58.0833 9.99996Z" fill="#FEC108"/>
<path d="M40.3 13.8C40.1134 14.6714 40.013 15.559 40 16.45C34.1119 18.1987 28.7924 21.4766 24.5834 25.95C24.1452 25.1777 23.7878 24.3623 23.5167 23.5167C23.063 22.1946 22.8872 20.7932 23 19.4C23.4167 14.25 27.5 11.0334 25.8334 8.15002C27.5 11.0334 32.3334 9.10002 37 11.3167C38.2511 11.9219 39.3721 12.7654 40.3 13.8Z" fill="#FFDC00"/>
<path d="M24.5834 25.95C23.3752 27.2082 22.2715 28.5626 21.2834 30C21.0334 30.35 20.8 30.7 20.5834 31.0667C18.422 34.3756 16.8541 38.0359 15.95 41.8834C15.188 41.4201 14.4686 40.8902 13.8 40.3C12.7654 39.3721 11.9219 38.2511 11.3167 37C9.10002 32.3334 11.0334 27.5 8.15002 25.8334C11.0334 27.5 14.25 23.4167 19.4 23C20.793 22.8933 22.1933 23.0691 23.5167 23.5167C23.7878 24.3623 24.1452 25.1777 24.5834 25.95Z" fill="#FFDC00"/>
<path d="M16.45 60C15.559 59.9871 14.6714 59.8866 13.8 59.7C12.441 59.4112 11.1506 58.8623 10 58.0834C5.75002 55.15 5.00002 50 1.66669 50C5.00002 50 5.75002 44.85 10 41.9167C11.1506 41.1378 12.441 40.5889 13.8 40.3C14.4685 40.8903 15.188 41.4201 15.95 41.8834C14.5317 47.8623 14.7041 54.1084 16.45 60Z" fill="#FFDC00"/>
<path d="M25.95 75.4166C25.1777 75.8548 24.3623 76.2122 23.5167 76.4833C22.1946 76.9369 20.7932 77.1128 19.4 77C14.25 76.5833 11.0334 72.5 8.15002 74.1666C11.0334 72.5 9.10002 67.6666 11.3167 63C11.9219 61.7489 12.7654 60.6279 13.8 59.7C14.6714 59.8865 15.559 59.987 16.45 60C18.1987 65.8881 21.4766 71.2075 25.95 75.4166Z" fill="#FFDC00"/>
<path d="M41.8833 84.0501C41.42 84.8121 40.8902 85.5316 40.3 86.2001C39.372 87.2347 38.2511 88.0782 37 88.6834C32.3333 90.9001 27.5 88.9668 25.8333 91.8501C27.5 88.9668 23.4166 85.7501 23 80.6001C22.8933 79.2071 23.069 77.8069 23.5166 76.4834C24.3622 76.2123 25.1776 75.8549 25.95 75.4167C30.4017 79.6564 35.9007 82.636 41.8833 84.0501Z" fill="#FFDC00"/>
<path d="M60 83.55C59.9871 84.4411 59.8866 85.3287 59.7 86.2C59.4112 87.5591 58.8623 88.8495 58.0834 90C55.15 94.25 50 95 50 98.3334C50 95 44.85 94.25 41.9167 90C41.1378 88.8495 40.5889 87.5591 40.3 86.2C40.8903 85.5315 41.4201 84.812 41.8834 84.05C47.8623 85.4684 54.1084 85.296 60 83.55Z" fill="#FFDC00"/>
<path d="M54.9317 84.6517C54.8854 85.172 54.8081 85.689 54.7 86.2C54.4112 87.5591 53.8622 88.8495 53.0833 90C51.5367 91.9385 49.6435 93.5729 47.5 94.82C48.9333 95.8384 50 96.82 50 98.3334C50 95 55.15 94.25 58.0833 90C58.8622 88.8495 59.4112 87.5591 59.7 86.2C59.8866 85.3287 59.9871 84.4411 60 83.55C58.3407 84.0442 56.6464 84.4125 54.9317 84.6517Z" fill="#FEC108"/>
<path d="M77 80.6C76.5834 85.75 72.5 88.9667 74.1667 91.85C72.5 88.9667 67.6667 90.9 63 88.6834C61.7489 88.0782 60.628 87.2346 59.7 86.2C59.8866 85.3287 59.9871 84.4411 60 83.55C65.8881 81.8014 71.2076 78.5234 75.4167 74.05C75.8548 74.8224 76.2123 75.6378 76.4834 76.4834C76.937 77.8054 77.1129 79.2069 77 80.6Z" fill="#FFDC00"/>
<path d="M76.4833 76.4834C76.2123 75.6378 75.8548 74.8224 75.4167 74.05C74.2752 75.2556 73.0499 76.379 71.75 77.4117C72.0078 78.4536 72.0923 79.5308 72 80.6C71.6667 84.6567 69.08 87.51 68.8033 89.95C71.2117 90.1267 73.2117 90.1967 74.1667 91.85C72.5 88.9667 76.5833 85.75 77 80.6C77.1129 79.2069 76.937 77.8054 76.4833 76.4834Z" fill="#FEC108"/>
<path d="M91.85 74.1666C88.9667 72.4999 85.75 76.5832 80.6 76.9999C79.207 77.1066 77.8068 76.9309 76.4834 76.4832C76.2123 75.6377 75.8548 74.8222 75.4167 74.0499C79.6563 69.5982 82.6359 64.0992 84.05 58.1166C84.812 58.5799 85.5315 59.1097 86.2 59.6999C87.2346 60.6279 88.0781 61.7488 88.6834 62.9999C90.9 67.6666 88.9667 72.4999 91.85 74.1666Z" fill="#FFDC00"/>
<path d="M88.6833 62.9999C88.0781 61.7488 87.2345 60.6279 86.2 59.6999C85.5314 59.1097 84.812 58.5799 84.05 58.1166C83.7501 59.3628 83.3812 60.5913 82.945 61.7966C83.2202 62.1791 83.467 62.5813 83.6833 62.9999C85.9 67.6666 83.9666 72.4999 86.85 74.1666C84.3 72.6933 81.4883 75.7099 77.3116 76.7183C78.3853 76.9896 79.4958 77.0848 80.6 76.9999C85.75 76.5833 88.9666 72.4999 91.85 74.1666C88.9666 72.4999 90.9 67.6666 88.6833 62.9999Z" fill="#FEC108"/>
<path d="M98.3334 50C95 50 94.25 55.15 90 58.0833C88.8495 58.8622 87.5591 59.4112 86.2 59.7C85.5315 59.1098 84.812 58.5799 84.05 58.1167C85.4684 52.1377 85.296 45.8916 83.55 40C84.4411 40.0129 85.3287 40.1134 86.2 40.3C87.5591 40.5888 88.8495 41.1378 90 41.9167C94.25 44.85 95 50 98.3334 50Z" fill="#FFDC00"/>
<path d="M83.55 40C84.1084 41.86 83.4284 40.8333 85 41.9167C89.25 44.85 90 50 93.3334 50C90 50 89.25 55.15 85 58.0833C84.1584 58.66 84.2417 57.9733 86.2 59.7C94.0384 57.97 94.1867 50 98.3334 50C93.8 50 93.9134 40.2033 83.55 40Z" fill="#FEC108"/>
<path d="M91.85 25.8333C88.9667 27.5 90.9 32.3333 88.6834 37C88.0782 38.251 87.2346 39.372 86.2 40.3C85.3287 40.1134 84.4411 40.0129 83.55 40C82.6116 36.8379 81.2194 33.8288 79.4167 31.0666C79.2 30.7 78.9667 30.35 78.7167 30C77.353 28.0376 75.7891 26.2223 74.05 24.5833C74.8224 24.1451 75.6378 23.7877 76.4834 23.5166C77.8054 23.063 79.2069 22.8871 80.6 23C85.75 23.4166 88.9667 27.5 91.85 25.8333Z" fill="#FFDC00"/>
<path d="M77.3116 23.2816C81.4883 24.2899 84.3 27.3066 86.85 25.8333C83.7116 27.6466 86.3133 33.1383 82.945 38.2033C83.1566 38.7966 83.37 39.3916 83.55 39.9999C84.441 40.0129 85.3286 40.1133 86.2 40.2999C92.07 34.9349 88.2983 27.8866 91.85 25.8333C88.4266 27.8116 84.305 21.5266 77.3116 23.2816Z" fill="#FEC108"/>
<path d="M76.4833 23.5167C75.6377 23.7878 74.8223 24.1452 74.05 24.5834C69.5983 20.3437 64.0993 17.3642 58.1166 15.95C58.5799 15.188 59.1098 14.4686 59.7 13.8C60.6279 12.7655 61.7489 11.9219 63 11.3167C67.6666 9.10002 72.5 11.0334 74.1666 8.15002C72.5 11.0334 76.5833 14.25 77 19.4C77.1067 20.793 76.9309 22.1933 76.4833 23.5167Z" fill="#FFDC00"/>
<path d="M77 19.4C76.5833 14.25 72.5 11.0334 74.1667 8.15002C73.2117 9.80336 71.2117 9.87336 68.8033 10.05C69.08 12.49 71.6667 15.3434 72 19.4C72.0831 20.4724 71.997 21.5511 71.745 22.5967C72.5383 23.23 73.315 23.885 74.05 24.5834C74.8223 24.1452 75.6378 23.7878 76.4833 23.5167C76.931 22.1933 77.1067 20.793 77 19.4Z" fill="#FEC108"/>
<path d="M50 85C69.33 85 85 69.33 85 50C85 30.67 69.33 15 50 15C30.67 15 15 30.67 15 50C15 69.33 30.67 85 50 85Z" fill="#FF9801"/>
<path d="M50 15C49.1567 15 48.3333 15.0667 47.5 15.1267C65.8077 16.4182 79.9999 31.6468 79.9999 50C79.9999 68.3532 65.8077 83.5818 47.5 84.8733C48.3333 84.9333 49.1583 85 50 85C69.33 85 85 69.33 85 50C85 30.67 69.33 15 50 15Z" fill="#F57C00"/>
<path d="M79.4167 31.0667L50 85L20.5833 31.0667C20.8 30.7 21.0333 30.35 21.2833 30H78.7166C78.9711 30.3413 79.2048 30.6975 79.4167 31.0667Z" fill="#FFDC00"/>
<path d="M78.7167 30H73.7167C73.9711 30.3413 74.2048 30.6975 74.4167 31.0667L47.5 80.4167L50 85L79.4167 31.0667C79.2048 30.6975 78.9711 30.3413 78.7167 30Z" fill="#FEC108"/>
<path d="M1.66667 51.6667C2.56833 51.6667 3.27333 52.6417 4.445 54.3683C5.64256 56.3448 7.20873 58.0728 9.05833 59.4583C9.63788 59.8517 10.2514 60.1925 10.8917 60.4767C10.4769 61.0453 10.1149 61.6506 9.81 62.285C8.90197 64.4099 8.41138 66.6897 8.365 69C8.215 71.0733 8.09333 72.27 7.31667 72.7183C6.79675 73.0139 6.47508 73.5655 6.47376 74.1635C6.47245 74.7616 6.79169 75.3145 7.3103 75.6124C7.82892 75.9103 8.46738 75.9075 8.98333 75.605C9.76333 75.1567 10.8583 75.6483 12.7283 76.5533C14.7471 77.6684 16.961 78.3858 19.25 78.6667C19.5717 78.695 19.8967 78.71 20.2217 78.71C20.607 78.6975 20.9913 78.6652 21.3733 78.6133C21.2971 79.3174 21.2837 80.0269 21.3333 80.7333C21.6096 83.0267 22.3237 85.2458 23.4367 87.27C24.3433 89.1417 24.835 90.2383 24.385 91.015C24.0825 91.531 24.0797 92.1694 24.3776 92.688C24.6755 93.2066 25.2284 93.5259 25.8265 93.5246C26.4245 93.5233 26.9761 93.2016 27.2717 92.6817C27.72 91.905 28.9167 91.7833 30.99 91.6333C33.3021 91.5871 35.5837 91.0959 37.71 90.1867C38.344 89.8811 38.9492 89.5191 39.5183 89.105C39.8046 89.7448 40.1465 90.3583 40.54 90.9383C41.925 92.7858 43.6518 94.3503 45.6267 95.5467C47.3583 96.7267 48.3333 97.4317 48.3333 98.3333C48.3333 99.2538 49.0795 100 50 100C50.9205 100 51.6667 99.2538 51.6667 98.3333C51.6667 97.4317 52.6417 96.7267 54.3683 95.555C56.3448 94.3574 58.0728 92.7913 59.4583 90.9417C59.8517 90.3621 60.1925 89.7486 60.4767 89.1083C61.0453 89.5231 61.6506 89.8851 62.285 90.19C64.4113 91.0992 66.6929 91.5904 69.005 91.6367C71.0783 91.7867 72.275 91.9083 72.7233 92.685C73.1867 93.4754 74.2011 93.7435 74.9945 93.2855C75.7879 92.8274 76.0628 91.8148 75.61 91.0183C75.16 90.2417 75.6517 89.145 76.5583 87.2733C77.6718 85.2537 78.3876 83.0393 78.6667 80.75C78.7269 80.0347 78.7179 79.3153 78.64 78.6017C79.03 78.64 79.42 78.6983 79.8067 78.6983C80.115 78.6983 80.425 78.685 80.735 78.6617C83.0284 78.3854 85.2475 77.6713 87.2717 76.5583C89.1433 75.6517 90.24 75.1617 91.0167 75.61C91.5326 75.9125 92.1711 75.9153 92.6897 75.6174C93.2083 75.3195 93.5275 74.7666 93.5262 74.1685C93.5249 73.5704 93.2032 73.0189 92.6833 72.7233C91.9067 72.275 91.785 71.0783 91.635 69.005C91.5887 66.6929 91.0976 64.4113 90.1883 62.285C89.8827 61.651 89.5207 61.0458 89.1067 60.4767C89.7465 60.1904 90.36 59.8485 90.94 59.455C92.7875 58.07 94.3519 56.3432 95.5483 54.3683C96.7267 52.6417 97.4317 51.6667 98.3333 51.6667C99.2538 51.6667 100 50.9205 100 50C100 49.0795 99.2538 48.3333 98.3333 48.3333C97.4317 48.3333 96.7267 47.3583 95.555 45.6317C94.3574 43.6552 92.7913 41.9272 90.9417 40.5417C90.3621 40.1483 89.7486 39.8075 89.1083 39.5233C89.5231 38.9547 89.8851 38.3494 90.19 37.715C91.0992 35.5887 91.5904 33.3071 91.6367 30.995C91.7867 28.9217 91.9083 27.725 92.685 27.2767C93.2049 26.9811 93.5266 26.4295 93.5279 25.8315C93.5292 25.2334 93.21 24.6805 92.6914 24.3826C92.1728 24.0847 91.5343 24.0875 91.0183 24.39C90.2417 24.8417 89.145 24.3483 87.2733 23.4417C85.2537 22.3282 83.0393 21.6124 80.75 21.3333C80.0435 21.2749 79.3331 21.2838 78.6283 21.36C78.7019 20.6624 78.7131 19.9596 78.6617 19.26C78.3854 16.9666 77.6713 14.7475 76.5583 12.7233C75.6517 10.8517 75.16 9.755 75.61 8.97833C75.9125 8.46238 75.9153 7.82392 75.6174 7.3053C75.3195 6.78669 74.7666 6.46745 74.1685 6.46876C73.5704 6.47008 73.0189 6.79175 72.7233 7.31167C72.275 8.08833 71.0783 8.21 69.005 8.36C66.6929 8.40627 64.4113 8.89744 62.285 9.80667C61.651 10.1123 61.0458 10.4743 60.4767 10.8883C60.1904 10.2485 59.8485 9.63504 59.455 9.055C58.07 7.20749 56.3432 5.64306 54.3683 4.44667C52.6417 3.27333 51.6667 2.56833 51.6667 1.66667C51.6667 0.746192 50.9205 0 50 0C49.0795 0 48.3333 0.746192 48.3333 1.66667C48.3333 2.56833 47.3583 3.27333 45.6317 4.445C43.6552 5.64256 41.9272 7.20873 40.5417 9.05833C40.1483 9.63788 39.8075 10.2514 39.5233 10.8917C38.9547 10.4769 38.3494 10.1149 37.715 9.81C35.5901 8.90197 33.3103 8.41138 31 8.365C28.9267 8.215 27.73 8.09333 27.2817 7.31667C26.8183 6.52631 25.8039 6.25812 25.0105 6.71621C24.2171 7.1743 23.9422 8.1869 24.395 8.98333C24.845 9.76 24.3533 10.8567 23.4467 12.7283C22.3316 14.7471 21.6142 16.961 21.3333 19.25C21.2743 19.9559 21.2826 20.6657 21.3583 21.37C20.6636 21.2949 19.9636 21.2826 19.2667 21.3333C16.9732 21.6096 14.7542 22.3237 12.73 23.4367C10.86 24.3433 9.765 24.8367 8.985 24.385C8.46905 24.0825 7.83058 24.0797 7.31197 24.3776C6.79336 24.6755 6.47411 25.2284 6.47543 25.8265C6.47674 26.4245 6.79841 26.9761 7.31833 27.2717C8.095 27.72 8.21667 28.9167 8.36667 30.99C8.41294 33.3021 8.9041 35.5837 9.81333 37.71C10.1189 38.344 10.4809 38.9492 10.895 39.5183C10.2552 39.8046 9.6417 40.1465 9.06167 40.54C7.21415 41.925 5.64973 43.6518 4.45333 45.6267C3.27333 47.3583 2.56833 48.3333 1.66667 48.3333C0.746192 48.3333 0 49.0795 0 50C0 50.9205 0.746192 51.6667 1.66667 51.6667ZM19.535 75.3333C17.6549 75.0866 15.8388 74.4848 14.1833 73.56C13.2551 73.0754 12.2871 72.6712 11.29 72.3517C11.5113 71.3288 11.6446 70.2889 11.6883 69.2433C11.7105 67.3452 12.0952 65.4688 12.8217 63.715C13.2337 62.8948 13.7706 62.1436 14.4133 61.4883C14.6783 61.5267 14.9483 61.5633 15.2217 61.5883C16.8714 66.522 19.5518 71.0483 23.085 74.8667C23.055 74.8767 23.0267 74.8917 22.995 74.9C21.8847 75.2852 20.706 75.4328 19.535 75.3333ZM50 16.6667C59.7277 16.6699 68.9659 20.9334 75.28 28.3333H24.72C31.0341 20.9334 40.2723 16.6699 50 16.6667ZM52.8867 83.1867L79.465 34.4583C84.6911 44.3278 84.618 56.1606 79.2704 65.9648C73.9229 75.769 64.0139 82.237 52.8867 83.1867ZM22.81 31.6667H77.19L50 81.52L22.81 31.6667ZM20.535 34.4583L47.1133 83.1867C35.9861 82.237 26.0771 75.769 20.7296 65.9648C15.382 56.1606 15.3089 44.3278 20.535 34.4583ZM36.285 87.1783C34.5312 87.9048 32.6548 88.2895 30.7567 88.3117C29.7111 88.3554 28.6712 88.4887 27.6483 88.71C27.3288 87.7129 26.9246 86.7449 26.44 85.8167C25.5152 84.163 24.9134 82.3486 24.6667 80.47C24.6103 79.5469 24.702 78.6208 24.9383 77.7267C25.1917 77.6267 25.4383 77.525 25.6883 77.4117C29.5759 80.8713 34.1551 83.4642 39.1217 85.0183C39.1067 85.0367 39.0917 85.0567 39.075 85.075C38.2905 85.9507 37.3428 86.6651 36.285 87.1783ZM56.7117 89.0533C55.5588 90.5577 54.1293 91.8283 52.5 92.7967C51.6138 93.3597 50.7774 93.9976 50 94.7033C49.2226 93.9976 48.3862 93.3597 47.5 92.7967C45.8712 91.8297 44.4417 90.5609 43.2883 89.0583C42.7829 88.2884 42.3989 87.4451 42.15 86.5583C42.3167 86.35 42.4833 86.1417 42.63 85.9283C47.7343 86.9728 53.0027 86.916 58.0833 85.7617C58.0833 85.79 58.0833 85.8183 58.0683 85.8467C57.8265 86.9928 57.3658 88.0816 56.7117 89.0533ZM73.56 85.8167C73.0754 86.7449 72.6712 87.7129 72.3517 88.71C71.3288 88.4887 70.2889 88.3554 69.2433 88.3117C67.3452 88.2895 65.4688 87.9048 63.715 87.1783C62.8948 86.7663 62.1436 86.2294 61.4883 85.5867C61.5267 85.3217 61.5633 85.0517 61.5883 84.7783C66.522 83.1286 71.0483 80.4482 74.8667 76.915C74.8767 76.945 74.8917 76.9733 74.9 77.005C75.2857 78.1152 75.4355 79.2936 75.34 80.465C75.0912 82.3456 74.4872 84.1617 73.56 85.8167ZM85.8167 73.56C84.163 74.4848 82.3486 75.0866 80.47 75.3333C79.5468 75.3937 78.6201 75.3019 77.7267 75.0617C77.6267 74.8083 77.525 74.5617 77.4117 74.3117C80.8713 70.4241 83.4642 65.8449 85.0183 60.8783L85.075 60.925C85.9502 61.7081 86.6646 62.654 87.1783 63.71C87.9048 65.4638 88.2895 67.3402 88.3117 69.2383C88.3554 70.2839 88.4887 71.3238 88.71 72.3467C87.7127 72.6678 86.7447 73.0737 85.8167 73.56ZM92.7967 47.5C93.3597 48.3862 93.9976 49.2226 94.7033 50C93.9976 50.7774 93.3597 51.6138 92.7967 52.5C91.8297 54.1288 90.5609 55.5583 89.0583 56.7117C88.2884 57.2171 87.4451 57.6011 86.5583 57.85C86.35 57.6833 86.1417 57.5167 85.9283 57.37C86.9728 52.2657 86.916 46.9973 85.7617 41.9167C85.79 41.9167 85.8183 41.9167 85.8467 41.9317C86.9948 42.1739 88.0854 42.6357 89.0583 43.2917C90.5606 44.4441 91.8294 45.8723 92.7967 47.5ZM80.465 24.6667C82.3456 24.9154 84.1617 25.5195 85.8167 26.4467C86.7449 26.9312 87.7129 27.3355 88.71 27.655C88.4887 28.6778 88.3554 29.7177 88.3117 30.7633C88.2895 32.6615 87.9048 34.5379 87.1783 36.2917C86.7663 37.1119 86.2294 37.863 85.5867 38.5183C85.3217 38.48 85.0517 38.4433 84.7783 38.4183C83.1286 33.4846 80.4482 28.9583 76.915 25.14C76.945 25.13 76.9733 25.115 77.005 25.1067C78.1152 24.7213 79.2936 24.5714 80.465 24.6667ZM63.715 12.8333C65.4688 12.1068 67.3452 11.7222 69.2433 11.7C70.2889 11.6562 71.3288 11.523 72.3517 11.3017C72.6712 12.2988 73.0754 13.2668 73.56 14.195C74.4834 15.8451 75.0852 17.6555 75.3333 19.53C75.3897 20.4531 75.298 21.3792 75.0617 22.2733C74.8083 22.3733 74.5617 22.475 74.3117 22.5883C70.4241 19.1287 65.8449 16.5358 60.8783 14.9817C60.8933 14.9633 60.9083 14.9433 60.925 14.925C61.7095 14.0493 62.6572 13.3349 63.715 12.8217V12.8333ZM43.2883 10.9467C44.4412 9.44226 45.8707 8.17175 47.5 7.20333C48.3862 6.64027 49.2226 6.00239 50 5.29667C50.7774 6.00239 51.6138 6.64027 52.5 7.20333C54.1288 8.17027 55.5583 9.43906 56.7117 10.9417C57.2171 11.7117 57.6011 12.5549 57.85 13.4417C57.6833 13.65 57.5167 13.8583 57.37 14.0717C52.2657 13.0272 46.9973 13.084 41.9167 14.2383C41.9167 14.21 41.9167 14.1817 41.9317 14.1533C42.1735 13.0072 42.6342 11.9184 43.2883 10.9467ZM26.44 14.1833C26.9246 13.2551 27.3288 12.2871 27.6483 11.29C28.6712 11.5113 29.7111 11.6446 30.7567 11.6883C32.6548 11.7105 34.5312 12.0952 36.285 12.8217C37.1052 13.2337 37.8564 13.7706 38.5117 14.4133C38.4733 14.6783 38.4367 14.9483 38.4117 15.2217C33.478 16.8714 28.9517 19.5518 25.1333 23.085C25.1233 23.055 25.1083 23.0267 25.1 22.995C24.7143 21.8848 24.5645 20.7064 24.66 19.535C24.9088 17.6544 25.5128 15.8383 26.44 14.1833ZM14.1833 26.44C15.837 25.5152 17.6514 24.9134 19.53 24.6667C20.4531 24.6078 21.3797 24.6996 22.2733 24.9383C22.3733 25.1917 22.475 25.4383 22.5883 25.6883C19.1287 29.5759 16.5358 34.1551 14.9817 39.1217L14.925 39.075C14.0498 38.2919 13.3354 37.346 12.8217 36.29C12.0952 34.5362 11.7105 32.6598 11.6883 30.7617C11.6446 29.7161 11.5113 28.6762 11.29 27.6533C12.2873 27.3322 13.2553 26.9263 14.1833 26.44ZM7.20333 47.5C8.17027 45.8712 9.43906 44.4417 10.9417 43.2883C11.7117 42.7829 12.5549 42.3989 13.4417 42.15C13.65 42.3167 13.8583 42.4833 14.0717 42.63C13.0272 47.7343 13.084 53.0027 14.2383 58.0833L14.1533 58.0683C13.0052 57.8261 11.9146 57.3643 10.9417 56.7083C9.43938 55.5559 8.17062 54.1277 7.20333 52.5C6.64027 51.6138 6.00239 50.7774 5.29667 50C6.00239 49.2226 6.64027 48.3862 7.20333 47.5Z" fill="black"/>
</svg>
